<?xml version="1.0" standalone="no"?>
<!DOCTYPE svg PUBLIC "-//W3C//DTD SVG 20010904//EN"
 "http://www.w3.org/TR/2001/REC-SVG-20010904/DTD/svg10.dtd">
<svg version="1.0" xmlns="http://www.w3.org/2000/svg"
 width="260.000000pt" height="260.000000pt" viewBox="0 0 260.000000 260.000000"
 preserveAspectRatio="xMidYMid meet">
<metadata>
Created by potrace 1.11, written by Peter Selinger 2001-2013
</metadata>
<g transform="translate(0.000000,260.000000) scale(0.100000,-0.100000)"
fill="#000000" stroke="none">
<path d="M1138 2445 c-551 -90 -958 -568 -958 -1125 0 -92 24 -286 36 -300 3
-2 32 23 66 57 l61 61 2 174 c2 203 17 274 91 427 127 265 356 455 644 533
122 33 356 33 480 -1 102 -27 224 -83 311 -142 63 -42 185 -157 227 -212 20
-27 22 -28 112 -25 l92 3 -42 62 c-158 236 -427 417 -714 479 -101 22 -302 27
-408 9z"/>
<path d="M755 1651 l-120 -121 130 0 130 0 -210 -210 -210 -210 190 0 190 0
210 210 210 210 530 0 530 0 115 115 115 115 -591 0 c-325 0 -705 3 -845 6
l-254 6 -120 -121z"/>
<path d="M2374 1398 l-72 -73 -5 -86 c-15 -231 -116 -450 -286 -620 -127 -126
-278 -214 -451 -260 -123 -33 -357 -34 -480 -1 -109 29 -266 106 -353 171
l-67 52 -108 -3 -107 -3 77 -77 c339 -336 852 -421 1285 -213 121 57 199 111
295 203 214 205 335 466 353 767 3 55 3 126 -2 158 l-8 58 -71 -73z"/>
<path d="M1285 1250 l-140 -140 185 0 184 0 -69 -70 -69 -70 -521 0 -520 0
-130 -132 -130 -133 715 -3 715 -2 345 345 345 345 -385 0 -385 0 -140 -140z"/>
</g>
</svg>
